ok,"evolkova85@rambler.ru"
ok,"chigovaea@yandex.ru"
ok,"crylova5@yandex.ru"
ok,"churikov51@icloud.com"
ok,"eleonora2603@mail.ru"
ok,"cheshiire@mail.ru"
ok,"dasha.shcherbatova@mail.ru"
ok,"waz19zaw50asd@mail.ru"
ok,"elenamiz22@yandex.ru"
ok,"archi-tatyana@yandex.ru"
ok,"vos-2011@yandex.ru"
ok,"sali-83@bk.ru"
ok,"olgasamigulina@yandex.ru"
ok,"svetadozorkina1444@gmail.com"
ok,"finish_2010@mail.ru"
ok,"vigetch@list.ru"
ok,"gashcov@bk.ru"
ok,"papanja33@gmail.com"
ok,"beenland@outlook.com"
ok,"krasmebel24@mail.ru"
ok,"onegovairina@rambler.ru"
ok,"k.pokrovskaya@list.ru"
ok,"club036@mail.ru"
ok,"smirnovael020@ya.ru"
ok,"rilnykofsh@mail.ru"
ok,"likaleksandar@yandex.ru"
ok,"irihka_@list.ru"
ok,"bitservis2010@mail.ru"
ok,"mrsnatmiller@gmail.com"
ok,"strike14@yandex.ru"
ok,"sarah.walker@yandex.ru"
ok,"natalasorokina475@gmail.com"
ok,"srr@pastila1881.com"
ok,"kurschackova2010@yandex.ru"
ok,"korvet.73@mail.ru"
ok,"kmagvai@gmail.com"
ok,"roksywhite@gmail.com"
ok,"olga316p@mail.ru"
ok,"lev-2424@mail.ru"
ok,"bakkina@mail.ru"
ok,"lubovalekseeva90@gmail.com"
ok,"fraumarta124@yandex.ru"
ok,"otrixbog@mail.ru"
ok,"olga.mazhuhno@mail.ru"
ok,"alya.90@mail.ru"
ok,"sukhikh-1988@bk.ru"
ok,"max.nesterenko@mail.ru"
ok,"arslanov-marsel@mail.ru"
ok,"2536725@mail.ru"
ok,"vitalicus2@rambler.ru"
ok,"012ekaterina@gmail.com"
ok,"waterandsun@yandex.ru"
ok,"irena-production@yandex.ru"
ok,"alena.zyryanova.96@gmail.com"
ok,"iammmdb@gmail.com"
ok,"vikulya_vorontsova1997@mail.ru"
ok,"krasfair3912143@yandex.ru"
ok,"kukhta.galya@mail.ru"
ok,"ildaravgn@gmail.com"
ok,"viktoria_krs@mail.ru"
ok,"msevar@mail.ru"
ok,"iqorpavlov79523@gmail.com"
ok,"honor9sergei@gmail.com"
ok,"korneeva_89a@mail.ru"
ok,"nikolaipolaz@yandex.ru"
ok,"llebe@yandex.ru"
ok,"islamova.larisa@mail.ru"
ok,"daknano@gmail.com"
ok,"zhanna.panova.1992@mail.ru"
ok,"travmatlog2015@yandex.ru"
ok,"hots.rekryt@mail.ru"
ok,"marinakhokhlo@yandex.ru"
ok,"gemshug@bk.ru"
ok,"pka-pka@mail.ru"
ok,"valentin-57@bk.ru"
ok,"dk10302@yandex.ru"
ok,"tintallemorizil@gmail.com"
ok,"liza.lizka.2020@mail.ru"
ok,"filippova63@mail.ru"
ok,"anatolik06@bk.ru"
ok,"ev2005glazkova@mail.ru"
ok,"elena.borovikova2011@yandex.ru"
ok,"kshedrina12@mail.ru"
ok,"ru5lanbelyaeff@yandex.ru"
ok,"luba_83@mail.ru"
ok,"khairovagm/61@mail.ru"
ok,"avnesterenko76@gmail.com"
ok,"denozavr83@mail.ru"
ok,"yekaterina-nekrasova-1994@bk.ru"
ok,"geogatedproject50@gmail.com"
ok,"geogatedproject118@gmail.com"
ok,"kolja73@meta.ua"
